.color1 { color: #002954}
.color2 { color: #003061}
.color3 { color: #003161}
.color4 { color: #013567}
.color5 { color: #00356b}
.color6 { color: #05396b}
.color7 { color: #003b6f}
.color8 { color: #00356e}
.color9 { color: #023e70}
.color10 { color: #013d71}
.color11 { color: #013a67}
.color12 { color: #013d6f}
.color13 { color: #003b6d}
.color14 { color: #034170}
.color15 { color: #204162}
.color16 { color: #004072}
.color17 { color: #014278}
.color18 { color: #00436a}
.color19 { color: #024476}
.color20 { color: #034577}
.color21 { color: #004b7d}
.color22 { color: #22495a}
.color23 { color: #004e83}
.color24 { color: #074b72}
.color25 { color: #124d6d}
.color26 { color: #0e4774}
.color27 { color: #00507f}
.color28 { color: #005385}
.color29 { color: #004e7b}
.color30 { color: #00577f}
.color31 { color: #145478}
.color32 { color: #0d4f83}
.color33 { color: #0d4d7b}
.color34 { color: #005686}
.color35 { color: #005b95}
.color36 { color: #015b8f}
.color37 { color: #00578b}
.color38 { color: #005a8a}
.color39 { color: #016394}
.color40 { color: #006394}
.color41 { color: #056798}