,"Jan - Dec 09"
"Ordinary Income/Expense",""
"Income",""
"4200-Sales-NC",2694545.43
"4300-Sales-SC",1362461.93
"4400-Commissions Earned",1000.00
"4420-Interest Income",1.16
"4460-Insurance Claims",-1514.38
"Total Income",4056494.14
"Cost of Goods Sold",""
"4100-Job Materials",""
"4100.01-Kalwall Corporation",2452489.31
"4100.02-Able Metal Fabricators",14349.67
"4100.06-Crisco Road Body Shop",5475.00
"4100.08-Eastern Metal Supply",720.06
"4100.16-Misc. Vendors",31368.25
"4100.19-Stewart Fastener & Tool",6880.63
"4100.20-Structures Unlimited",29455.00
"4100.21-Tucker Kirby, Inc.",23032.91
"4100.24-American Skylites",19584.00
"4100-Job Materials - Other",13849.01
"Total 4100-Job Materials",2597203.84
"4110-Building Supplies",1342.85
"4140-Contract Labor-C-I, Inc.",375309.35
"4145-Contract Labor-Country Liv",59221.68
"4170 Contract Labor - C Jones C",4437.18
"4180-Contract Labor-Miscellaneo",1202.79
"Total COGS",3038717.69
"Gross Profit",1017776.45
"Expense",""
"6010-Bank Charges",148.70
"6020-Bond Expense",2414.27
"6030-Car Insurance-Company",618.00
"6040-Car Maintenance Expense",616.71
"6070-Contributions/Donations",600.00
"6080-Dues",3065.00
"6090-Equipment Rental",""
"6090.01 Hertz Equipment Rental",7734.03
"6090.02-Rental Service Corp.",18621.84
"6090.04-United Rentals",3101.78
"6090.05 Sunbelt Rentals",35934.91
"6090.06-Ahern Rentals",3633.70
"6090-Equipment Rental - Other",2818.65
"Total 6090-Equipment Rental",71844.91
"6120-General Insurance",17588.00
"6130-Group Insurance",14746.82
"6140-Interest Expense",8788.09
"6150-Leased Car",10603.08
"6160-Leased Car Expense",260.98
"6161-Car Insurance",358.00
"6162-Car Maintenance",1962.45
"6163-Tires, Oil Changes",16.95
"6180-Miscellaneous",3444.28
"6190-NC taxes paid",98972.92
"6200-Office Supplies",4750.16
"6210-Officer's Insurance",352.96
"6220-Payroll Expenses",""
"6220.1-Officer Salary",197600.00
"Payroll Tax Expense",32689.54
"6220-Payroll Expenses - Other",179354.53
"Total 6220-Payroll Expenses",409644.07
"6230-Postage & Delivery",""
"6230.01-FedEx, UPS, etc.",2231.85
"6230.02-Post Office",1130.92
"Total 6230-Postage & Delivery",3362.77
"6240-Printing & Reproduction",2602.93
"6260-Professional Fees",""
"6260.01-Accounting Fees",8100.00
"6260.02-Engineering Fees",3250.00
"Total 6260-Professional Fees",11350.00
"6270-Rent",""
"6270.01-Monthly Rent",22750.00
"6270.02-Storage Rent",10005.94
"Total 6270-Rent",32755.94
"6280-Repairs & Maintenance",1683.90
"6300-SC taxes paid",59051.68
"6330-Subscriptions",1595.00
"6330-Taxes",""
"6330.01-Other",25.00
"6330.01-Personal Property Taxes",577.28
"Total 6330-Taxes",602.28
"6340-Telephone",""
"6340-01-Office Telephones",2987.69
"6340.02-Internet Service",1164.13
"6340.04-Mobile (Mark)",2051.48
"6340.05-Mobile (John)",1285.12
"6340.06-Mobile (Ronnie)",791.15
"Total 6340-Telephone",8279.57
"6350-Travel",""
"6350.01-Advertising Fees-Archit",7482.86
"6350.05-Car Allow(MWT)",9095.88
"6350.07-Gas/Parking",11865.91
"6350.08-Lodging",4062.81
"6350.10-Meals & Entertainment",12541.78
"6350.11-Office Cleaning/Supplie",89.36
"Total 6350-Travel",45138.60
"6355-Car Allowances",15592.80
"6357-Health Insurance",32740.06
"6370-Utilities",""
"6370.01-Electric",1079.14
"6370.02-Gas",470.09
"Total 6370-Utilities",1549.23
"7100 Officer's Life Insurance",874.60
"Total Expense",867975.71
"Net Ordinary Income",149800.74
"Other Income/Expense",""
"Other Expense",""
"7000-Bad Debt (Uncollectables)",5389.00
"7010-Depreciation",1209.73
"7030-Licenses",1203.89
"7050-Seminars",500.00
"7080-Taxes State UC",244.00
"7090-Trade Shows-AIA",150.00
"Total Other Expense",8696.62
"Net Other Income",-8696.62
"Net Income",141104.12
